<?xml version="1.0" encoding="utf-8"?><svg xmlns="http://www.w3.org/2000/svg" xmlns:xlink="http://www.w3.org/1999/xlink">
    <symbol viewBox="0 0 20 20" id="fb" xmlns="http://www.w3.org/2000/svg">
        <title>facebook</title>
        <path d="M10.6 20V10h3.3l.5-3.3h-3.8V5a1.56 1.56 0 0 1 1.1-1.7h2.9V0h-3.5c-3 0-3.8 2-3.8 4.7v2h-2V10h2v10h3.3z"/>
    </symbol>
    <symbol viewBox="0 0 40 40" id="inst" xmlns="http://www.w3.org/2000/svg">
        <path d="M29 0H11C5 0 0 5 0 11v18c0 6 5 11 11 11h18c6.1 0 11-5 11-11V11c0-6-5-11-11-11zm7.5 29c0 4.1-3.4 7.5-7.5 7.5H11c-4.1 0-7.5-3.4-7.5-7.5V11c0-4.1 3.4-7.5 7.5-7.5h18c4.1 0 7.5 3.4 7.5 7.5v18zM20 9.7C14.3 9.7 9.7 14.3 9.7 20S14.3 30.3 20 30.3 30.3 25.7 30.3 20 25.7 9.7 20 9.7zm0 17.1c-3.7 0-6.8-3-6.8-6.8 0-3.7 3-6.8 6.8-6.8s6.8 3 6.8 6.8c0 3.7-3.1 6.8-6.8 6.8zM30.7 6.7c-.7 0-1.4.3-1.8.8-.5.5-.8 1.2-.8 1.8 0 .7.3 1.4.8 1.8.5.5 1.2.8 1.8.8.7 0 1.4-.3 1.8-.8.5-.5.8-1.2.8-1.8 0-.7-.3-1.4-.8-1.8-.4-.5-1.1-.8-1.8-.8z"/>
    </symbol>
    <symbol viewBox="0 0 40 40" id="left" xmlns="http://www.w3.org/2000/svg">
        <path d="M15.51 20L31.263 4.25c.267-.268.401-.575.401-.922 0-.348-.133-.655-.4-.922L29.257.401C28.991.134 28.684 0 28.338 0c-.348 0-.656.134-.923.401L8.737 19.078c-.267.267-.4.575-.4.922 0 .347.133.655.4.922l18.677 18.677c.268.268.575.401.923.401.347 0 .654-.134.921-.401l2.004-2.003c.267-.267.4-.575.4-.922 0-.347-.133-.655-.4-.922z"/>
    </symbol>
    <symbol viewBox="0 0 40 40" id="right" xmlns="http://www.w3.org/2000/svg">
        <path d="M24.49 20L8.737 4.25c-.267-.268-.401-.575-.401-.922 0-.348.133-.655.4-.922L10.743.401c.267-.267.574-.401.92-.401.348 0 .656.134.923.401l18.678 18.677c.267.267.4.575.4.922 0 .347-.133.655-.4.922L12.586 39.599c-.268.268-.575.401-.923.401-.347 0-.654-.133-.921-.401l-2.004-2.003c-.267-.267-.4-.575-.4-.922 0-.347.133-.655.4-.922z"/>
    </symbol>
    <symbol viewBox="0 0 20 20" id="vk" xmlns="http://www.w3.org/2000/svg">
        <title>vkontakte</title>
        <path d="M17.73 9.07l.68-.89q1.8-2.4 1.59-3.06L19.91 5a.61.61 0 0 0-.32-.17 1.65 1.65 0 0 0-.67 0h-3.4a.46.46 0 0 0-.11.11.71.71 0 0 0-.1.18 17 17 0 0 1-1.11 2.34q-.39.65-.71 1.12a5.34 5.34 0 0 1-.54.7 3.76 3.76 0 0 1-.4.36.38.38 0 0 1-.27.11h-.18a.69.69 0 0 1-.23-.25 1.14 1.14 0 0 1-.12-.41v-.42-.5-.44-.86-.73-.57a2.39 2.39 0 0 0 0-.47 1.66 1.66 0 0 0-.11-.33.56.56 0 0 0-.21-.25 1.2 1.2 0 0 0-.43-.09 6.94 6.94 0 0 0-1.38-.13 6.85 6.85 0 0 0-2.49.25 1.41 1.41 0 0 0-.4.31q-.19.23-.05.25a1.28 1.28 0 0 1 .89.45l.06.12a2 2 0 0 1 .15.48 4.86 4.86 0 0 1 .09.76 8.09 8.09 0 0 1 0 1.3q-.05.54-.1.84a1.69 1.69 0 0 1-.14.49 2 2 0 0 1-.13.23l-.05.05a.78.78 0 0 1-.28.05.66.66 0 0 1-.35-.15 2.46 2.46 0 0 1-.43-.4 5.33 5.33 0 0 1-.51-.71q-.28-.45-.58-1.08l-.17-.3Q5 7 4.71 6.39t-.48-1.07A.69.69 0 0 0 4 5h-.07l-.17-.14-.24-.06H.67a.72.72 0 0 0-.6.2L0 5.08a.34.34 0 0 0 0 .17.83.83 0 0 0 .06.28Q.69 7 1.42 8.36t1.28 2.2q.54.83 1.1 1.57t.74.95l.29.31.26.25a6.2 6.2 0 0 0 .73.6 12.36 12.36 0 0 0 1.07.69 5.81 5.81 0 0 0 1.37.55 4.72 4.72 0 0 0 1.52.17H11a.82.82 0 0 0 .55-.23v-.05a.71.71 0 0 0 .08-.19 1.07 1.07 0 0 0 0-.29 3.43 3.43 0 0 1 .07-.81 2.13 2.13 0 0 1 .18-.54 1.33 1.33 0 0 1 .22-.31.9.9 0 0 1 .18-.15h.08a.66.66 0 0 1 .59.16 3.47 3.47 0 0 1 .64.6q.3.36.71.81a4.87 4.87 0 0 0 .73.67l.21.13a2.56 2.56 0 0 0 .54.23 1.17 1.17 0 0 0 .58.05h2.67a1.21 1.21 0 0 0 .61-.13.51.51 0 0 0 .36-.37.81.81 0 0 0 0-.35 1.29 1.29 0 0 0-.07-.28l-.07-.13a10.37 10.37 0 0 0-2-2.3 12 12 0 0 1-.84-.85.8.8 0 0 1-.15-.84 7.77 7.77 0 0 1 .86-1.41z"/>
    </symbol>
    <symbol viewBox="0 0 90 90" id="yt" xmlns="http://www.w3.org/2000/svg">
        <path d="M70.94 65.83H66V63a2.33 2.33 0 0 1 2.33-2.32h.32A2.33 2.33 0 0 1 71 63zm-18.53-6.15a2.11 2.11 0 0 0-2.28 1.87v14a2.33 2.33 0 0 0 4.56 0v-14a2.11 2.11 0 0 0-2.28-1.87zm30.09-7.8v26.54C82.5 84.79 77 90 70.23 90H19.77C13 90 7.5 84.79 7.5 78.42V51.88c0-6.37 5.5-11.58 12.27-11.58h50.46c6.77 0 12.27 5.21 12.27 11.58zM23.14 81.31v-28h6.26V49.2H12.73v4.07h5.2v28zm18.75-23.8h-5.22v14.93a26.46 26.46 0 0 1 0 3.62c-.42 1.16-2.33 2.39-3.07.13a29.71 29.71 0 0 1 0-3.64v-15h-5.23v14.8c0 2.27-.05 4 0 4.73.13 1.36.08 2.94 1.34 3.84 2.35 1.69 6.84-.25 8-2.67v3.08h4.19zm16.68 17.1V62.18c0-4.74-3.55-7.57-8.36-3.74V49.2H45v31.9l4.27-.1.39-2c5.48 5.07 8.92 1.63 8.91-4.39zM74.89 73H71v2.71a2.13 2.13 0 0 1-2.14 2.12h-.77a2.14 2.14 0 0 1-2.14-2.12V70h9v-3.42a53.17 53.17 0 0 0-.27-6.33c-.64-4.45-6.89-5.16-10.05-2.88a5.89 5.89 0 0 0-2.19 2.94 16.58 16.58 0 0 0-.67 5.25V73c-.06 12.3 14.91 10.55 13.12 0zM54.83 32.73a3.55 3.55 0 0 0 1.25 1.58 3.63 3.63 0 0 0 2.13.59 3.32 3.32 0 0 0 2-.62 4.79 4.79 0 0 0 1.46-1.87l-.1 2h5.83V9.74h-4.58V29A1.91 1.91 0 0 1 59 29V9.74h-4.77v16.67c0 2.12 0 3.54.1 4.26a7.17 7.17 0 0 0 .5 2.06zm-17.62-14a20.57 20.57 0 0 1 .59-5.56 6 6 0 0 1 6.08-4.43 7.21 7.21 0 0 1 3.46.78 5.76 5.76 0 0 1 2.23 2 8 8 0 0 1 1.08 2.57 20.53 20.53 0 0 1 .29 4v6.25a33.85 33.85 0 0 1-.27 5.05 8 8 0 0 1-1.15 3 5.43 5.43 0 0 1-2.24 2.06 7.14 7.14 0 0 1-3.15.66 8.76 8.76 0 0 1-3.36-.56A4.61 4.61 0 0 1 38.63 33a7.61 7.61 0 0 1-1.09-2.77 26.71 26.71 0 0 1-.32-4.87zm4.55 9.82a2.32 2.32 0 1 0 4.62 0V15.43a2.32 2.32 0 1 0-4.62 0zm-16.08 6.69h5.48v-19L37.65 0h-6l-3.44 12.1L24.72 0h-5.94l6.89 16.28z"/>
    </symbol>
    <symbol viewBox="0 0 18.56 32.01" id="od" xmlns="http://www.w3.org/2000/svg">
        <path d="M5.87,23.27,4.8,23a15.06,15.06,0,0,1-3.61-1.65,2.35,2.35,0,0,1-1.18-2A2.32,2.32,0,0,1,1.23,17.1a2.33,2.33,0,0,1,2.49,0A11.53,11.53,0,0,0,6,18.21a10.46,10.46,0,0,0,8.79-1,2.44,2.44,0,1,1,2.62,4.12,15.21,15.21,0,0,1-4,1.78l-.66.18,0,0,.14.15,4.39,4.39a2.44,2.44,0,1,1-3.47,3.43L9.45,27a2,2,0,0,1-.15-.2l-.2.18c-1.45,1.45-2.89,2.9-4.34,4.34a2.44,2.44,0,1,1-3.46-3.44l4.4-4.41Z"/>
        <path d="M1,8.27a8.27,8.27,0,1,1,8.16,8.27A8.25,8.25,0,0,1,1,8.27Zm4.88,0a3.38,3.38,0,1,0,3.39-3.4A3.4,3.4,0,0,0,5.89,8.28Z"/>
    </symbol>
    <symbol viewBox="0 0 50 50" id="tw" xmlns="http://www.w3.org/2000/svg">
        <path d="M 50.0625 10.4375 C 48.214844 11.257813 46.234375 11.808594 44.152344 12.058594 C 46.277344 10.785156 47.910156 8.769531 48.675781 6.371094 C 46.691406 7.546875 44.484375 8.402344 42.144531 8.863281 C 40.269531 6.863281 37.597656 5.617188 34.640625 5.617188 C 28.960938 5.617188 24.355469 10.21875 24.355469 15.898438 C 24.355469 16.703125 24.449219 17.488281 24.625 18.242188 C 16.078125 17.8125 8.503906 13.71875 3.429688 7.496094 C 2.542969 9.019531 2.039063 10.785156 2.039063 12.667969 C 2.039063 16.234375 3.851563 19.382813 6.613281 21.230469 C 4.925781 21.175781 3.339844 20.710938 1.953125 19.941406 C 1.953125 19.984375 1.953125 20.027344 1.953125 20.070313 C 1.953125 25.054688 5.5 29.207031 10.199219 30.15625 C 9.339844 30.390625 8.429688 30.515625 7.492188 30.515625 C 6.828125 30.515625 6.183594 30.453125 5.554688 30.328125 C 6.867188 34.410156 10.664063 37.390625 15.160156 37.472656 C 11.644531 40.230469 7.210938 41.871094 2.390625 41.871094 C 1.558594 41.871094 0.742188 41.824219 -0.0585938 41.726563 C 4.488281 44.648438 9.894531 46.347656 15.703125 46.347656 C 34.617188 46.347656 44.960938 30.679688 44.960938 17.09375 C 44.960938 16.648438 44.949219 16.199219 44.933594 15.761719 C 46.941406 14.3125 48.683594 12.5 50.0625 10.4375 Z "/>
    </symbol>
</svg>